{
    "typeAcquisition": {
        "include": [
            "jquery",
            "chrome"
        ]
    },
    "compilerOptions": {
        "checkJs": true,
        "target": "es2019"
      },
      "exclude": ["node_modules", "**/node_modules/*"]

}